{
  "project_info": {
    "project_number": "174930772071",
    "firebase_url": "https://livguardloyalty.firebaseio.com",
    "project_id": "livguardloyalty",
    "storage_bucket": "livguardloyalty.appspot.com"
  },
  "client": [
    {
      "client_info": {
        "mobilesdk_app_id": "1:174930772071:android:f5fdd0b53b46544e",
        "android_client_info": {
          "package_name": "com.sar.user.livfastRewards"
        }
      },
      "oauth_client": [
        {
          "client_id": "174930772071-8tb6ettds7mvbtko0hk42guuiivs53gl.apps.googleusercontent.com",
          "client_type": 3
        }
      ],
      "api_key": [
        {
          "current_key": "AIzaSyAWqK6p4m26H_x_C2PnGdIxGk1LglGBBFM"
        }
      ],
      "services": {
        "analytics_service": {
          "status": 1
        },
        "appinvite_service": {
          "status": 1,
          "other_platform_oauth_client": []
        },
        "ads_service": {
          "status": 2
        }
      }
    }
  ],
  "configuration_version": "1"
}